{
    "studentJson": {
        "Student Details": [
            {
                "type": "heading",
                "label": "Basic Details",
                "class": "form-hd"
            },
            {
                "category": "input",
                "type": "text",
                "name": "regId",
                "label": "Register ID",
                "class": "input-wrap",
                "readOnly": true,
                "required": false,
                "requiredBoolean": false,
                "clear": false
            },
            {
                "category": "input",
                "type": "text",
                "name": "firstName",
                "label": "First Name",
                "class": "input-wrap",
                "readOnly": true,
                "required": false,
                "requiredBoolean": false,
                "clear": false
            },
            {
                "category": "input",
                "type": "text",
                "name": "lastName",
                "label": "Last Name",
                "class": "input-wrap",
                "readOnly": true,
                "required": false,
                "requiredBoolean": false,
                "clear": false
            },
            {
                "category": "input",
                "type": "text",
                "name": "addmittedDate",
                "label": "Admitted On",
                "class": "input-wrap",
                "readOnly": true,
                "required": false,
                "requiredBoolean": false,
                "clear": false
            },
            {
                "category": "input",
                "type": "text",
                "name": "dob",
                "label": "Date of Birth",
                "class": "input-wrap",
                "readOnly": true,
                "required": false,
                "requiredBoolean": false,
                "clear": false
            },
            {
                "category": "input",
                "type": "text",
                "name": "gender",
                "label": "Gender",
                "class": "input-wrap",
                "readOnly": true,
                "required": false,
                "requiredBoolean": false,
                "clear": false
            },
            {
                "type": "select",
                "name": "CitizenshipData",
                "class": "select-input-wrap  branch-input setup-input-wrap ",
                "label": "Citizenship",
                "options": [
                    {
                        "label": "Afghanistan",
                        "value": "Afghanistan"
                    },
                    {
                        "label": "Åland Islands",
                        "value": "Åland Islands"
                    },
                    {
                        "label": "Albania",
                        "value": "Albania"
                    },
                    {
                        "label": "Algeria",
                        "value": "Algeria"
                    },
                    {
                        "label": "American Samoa",
                        "value": "American Samoa"
                    },
                    {
                        "label": "AndorrA",
                        "value": "AndorrA"
                    },
                    {
                        "label": "Angola",
                        "value": "Angola"
                    },
                    {
                        "label": "Anguilla",
                        "value": "Anguilla"
                    },
                    {
                        "label": "Antarctica",
                        "value": "Antarctica"
                    },
                    {
                        "label": "Antigua and Barbuda",
                        "value": "Antigua and Barbuda"
                    },
                    {
                        "label": "Argentina",
                        "value": "Argentina"
                    },
                    {
                        "label": "Armenia",
                        "value": "Armenia"
                    },
                    {
                        "label": "Aruba",
                        "value": "Aruba"
                    },
                    {
                        "label": "Australia",
                        "value": "Australia"
                    },
                    {
                        "label": "Austria",
                        "value": "Austria"
                    },
                    {
                        "label": "Azerbaijan",
                        "value": "Azerbaijan"
                    },
                    {
                        "label": "Bahamas",
                        "value": "Bahamas"
                    },
                    {
                        "label": "Bahrain",
                        "value": "Bahrain"
                    },
                    {
                        "label": "Bangladesh",
                        "value": "Bangladesh"
                    },
                    {
                        "label": "Barbados",
                        "value": "Barbados"
                    },
                    {
                        "label": "Belarus",
                        "value": "Belarus"
                    },
                    {
                        "label": "Belgium",
                        "value": "Belgium"
                    },
                    {
                        "label": "Belize",
                        "value": "Belize"
                    },
                    {
                        "label": "Benin",
                        "value": "Benin"
                    },
                    {
                        "label": "Bermuda",
                        "value": "Bermuda"
                    },
                    {
                        "label": "Bhutan",
                        "value": "Bhutan"
                    },
                    {
                        "label": "Bolivia",
                        "value": "Bolivia"
                    },
                    {
                        "label": "Bosnia and Herzegovina",
                        "value": "Bosnia and Herzegovina"
                    },
                    {
                        "label": "Botswana",
                        "value": "Botswana"
                    },
                    {
                        "label": "Bouvet Island",
                        "value": "Bouvet Island"
                    },
                    {
                        "label": "Brazil",
                        "value": "Brazil"
                    },
                    {
                        "label": "British Indian Ocean Territory",
                        "value": "British Indian Ocean Territory"
                    },
                    {
                        "label": "Brunei Darussalam",
                        "value": "Brunei Darussalam"
                    },
                    {
                        "label": "Bulgaria",
                        "value": "Bulgaria"
                    },
                    {
                        "label": "Burkina Faso",
                        "value": "Burkina Faso"
                    },
                    {
                        "label": "Burundi",
                        "value": "Burundi"
                    },
                    {
                        "label": "Cambodia",
                        "value": "Cambodia"
                    },
                    {
                        "label": "Cameroon",
                        "value": "Cameroon"
                    },
                    {
                        "label": "Canada",
                        "value": "Canada"
                    },
                    {
                        "label": "Cape Verde",
                        "value": "Cape Verde"
                    },
                    {
                        "label": "Cayman Islands",
                        "value": "Cayman Islands"
                    },
                    {
                        "label": "Central African Republic",
                        "value": "Central African Republic"
                    },
                    {
                        "label": "Chad",
                        "value": "Chad"
                    },
                    {
                        "label": "Chile",
                        "value": "Chile"
                    },
                    {
                        "label": "China",
                        "value": "China"
                    },
                    {
                        "label": "Christmas Island",
                        "value": "Christmas Island"
                    },
                    {
                        "label": "Cocos (Keeling) Islands",
                        "value": "Cocos (Keeling) Islands"
                    },
                    {
                        "label": "Colombia",
                        "value": "Colombia"
                    },
                    {
                        "label": "Comoros",
                        "value": "Comoros"
                    },
                    {
                        "label": "Congo",
                        "value": "Congo"
                    },
                    {
                        "label": "Congo, The Democratic Republic of the",
                        "value": "Congo, The Democratic Republic of the"
                    },
                    {
                        "label": "Cook Islands",
                        "value": "Cook Islands"
                    },
                    {
                        "label": "Costa Rica",
                        "value": "Costa Rica"
                    },
                    {
                        "label": "Cote D'Ivoire",
                        "value": "Cote D'Ivoire"
                    },
                    {
                        "label": "Croatia",
                        "value": "Croatia"
                    },
                    {
                        "label": "Cuba",
                        "value": "Cuba"
                    },
                    {
                        "label": "Cyprus",
                        "value": "Cyprus"
                    },
                    {
                        "label": "Czech Republic",
                        "value": "Czech Republic"
                    },
                    {
                        "label": "Denmark",
                        "value": "Denmark"
                    },
                    {
                        "label": "Djibouti",
                        "value": "Djibouti"
                    },
                    {
                        "label": "Dominica",
                        "value": "Dominica"
                    },
                    {
                        "label": "Dominican Republic",
                        "value": "Dominican Republic"
                    },
                    {
                        "label": "Ecuador",
                        "value": "Ecuador"
                    },
                    {
                        "label": "Egypt",
                        "value": "Egypt"
                    },
                    {
                        "label": "El Salvador",
                        "value": "El Salvador"
                    },
                    {
                        "label": "Equatorial Guinea",
                        "value": "Equatorial Guinea"
                    },
                    {
                        "label": "Eritrea",
                        "value": "Eritrea"
                    },
                    {
                        "label": "Estonia",
                        "value": "Estonia"
                    },
                    {
                        "label": "Ethiopia",
                        "value": "Ethiopia"
                    },
                    {
                        "label": "Falkland Islands (Malvinas)",
                        "value": "Falkland Islands (Malvinas)"
                    },
                    {
                        "label": "Faroe Islands",
                        "value": "Faroe Islands"
                    },
                    {
                        "label": "Fiji",
                        "value": "Fiji"
                    },
                    {
                        "label": "Finland",
                        "value": "Finland"
                    },
                    {
                        "label": "France",
                        "value": "France"
                    },
                    {
                        "label": "French Guiana",
                        "value": "French Guiana"
                    },
                    {
                        "label": "French Polynesia",
                        "value": "French Polynesia"
                    },
                    {
                        "label": "French Southern Territories",
                        "value": "French Southern Territories"
                    },
                    {
                        "label": "Gabon",
                        "value": "Gabon"
                    },
                    {
                        "label": "Gambia",
                        "value": "Gambia"
                    },
                    {
                        "label": "Georgia",
                        "value": "Georgia"
                    },
                    {
                        "label": "Germany",
                        "value": "Germany"
                    },
                    {
                        "label": "Ghana",
                        "value": "Ghana"
                    },
                    {
                        "label": "Gibraltar",
                        "value": "Gibraltar"
                    },
                    {
                        "label": "Greece",
                        "value": "Greece"
                    },
                    {
                        "label": "Greenland",
                        "value": "Greenland"
                    },
                    {
                        "label": "Grenada",
                        "value": "Grenada"
                    },
                    {
                        "label": "Guadeloupe",
                        "value": "Guadeloupe"
                    },
                    {
                        "label": "Guam",
                        "value": "Guam"
                    },
                    {
                        "label": "Guatemala",
                        "value": "Guatemala"
                    },
                    {
                        "label": "Guernsey",
                        "value": "Guernsey"
                    },
                    {
                        "label": "Guinea",
                        "value": "Guinea"
                    },
                    {
                        "label": "Guinea-Bissau",
                        "value": "Guinea-Bissau"
                    },
                    {
                        "label": "Guyana",
                        "value": "Guyana"
                    },
                    {
                        "label": "Haiti",
                        "value": "Haiti"
                    },
                    {
                        "label": "Heard Island and Mcdonald Islands",
                        "value": "Heard Island and Mcdonald Islands"
                    },
                    {
                        "label": "Holy See (Vatican City State)",
                        "value": "Holy See (Vatican City State)"
                    },
                    {
                        "label": "Honduras",
                        "value": "Honduras"
                    },
                    {
                        "label": "Hong Kong",
                        "value": "Hong Kong"
                    },
                    {
                        "label": "Hungary",
                        "value": "Hungary"
                    },
                    {
                        "label": "Iceland",
                        "value": "Iceland"
                    },
                    {
                        "label": "India",
                        "value": "India"
                    },
                    {
                        "label": "Indonesia",
                        "value": "Indonesia"
                    },
                    {
                        "label": "Iran, Islamic Republic Of",
                        "value": "Iran, Islamic Republic Of"
                    },
                    {
                        "label": "Iraq",
                        "value": "Iraq"
                    },
                    {
                        "label": "Ireland",
                        "value": "Ireland"
                    },
                    {
                        "label": "Isle of Man",
                        "value": "Isle of Man"
                    },
                    {
                        "label": "Israel",
                        "value": "Israel"
                    },
                    {
                        "label": "Italy",
                        "value": "Italy"
                    },
                    {
                        "label": "Jamaica",
                        "value": "Jamaica"
                    },
                    {
                        "label": "Japan",
                        "value": "Japan"
                    },
                    {
                        "label": "Jersey",
                        "value": "Jersey"
                    },
                    {
                        "label": "Jordan",
                        "value": "Jordan"
                    },
                    {
                        "label": "Kazakhstan",
                        "value": "Kazakhstan"
                    },
                    {
                        "label": "Kenya",
                        "value": "Kenya"
                    },
                    {
                        "label": "Kiribati",
                        "value": "Kiribati"
                    },
                    {
                        "label": "Korea, Democratic People'S Republic of",
                        "value": "Korea, Democratic People'S Republic of"
                    },
                    {
                        "label": "Korea, Republic of",
                        "value": "Korea, Republic of"
                    },
                    {
                        "label": "Kuwait",
                        "value": "Kuwait"
                    },
                    {
                        "label": "Kyrgyzstan",
                        "value": "Kyrgyzstan"
                    },
                    {
                        "label": "Lao People'S Democratic Republic",
                        "value": "Lao People'S Democratic Republic"
                    },
                    {
                        "label": "Latvia",
                        "value": "Latvia"
                    },
                    {
                        "label": "Lebanon",
                        "value": "Lebanon"
                    },
                    {
                        "label": "Lesotho",
                        "value": "Lesotho"
                    },
                    {
                        "label": "Liberia",
                        "value": "Liberia"
                    },
                    {
                        "label": "Libyan Arab Jamahiriya",
                        "value": "Libyan Arab Jamahiriya"
                    },
                    {
                        "label": "Liechtenstein",
                        "value": "Liechtenstein"
                    },
                    {
                        "label": "Lithuania",
                        "value": "Lithuania"
                    },
                    {
                        "label": "Luxembourg",
                        "value": "Luxembourg"
                    },
                    {
                        "label": "Macao",
                        "value": "Macao"
                    },
                    {
                        "label": "Macedonia, The Former Yugoslav Republic of",
                        "value": "Macedonia, The Former Yugoslav Republic of"
                    },
                    {
                        "label": "Madagascar",
                        "value": "Madagascar"
                    },
                    {
                        "label": "Malawi",
                        "value": "Malawi"
                    },
                    {
                        "label": "Malaysia",
                        "value": "Malaysia"
                    },
                    {
                        "label": "Maldives",
                        "value": "Maldives"
                    },
                    {
                        "label": "Mali",
                        "value": "Mali"
                    },
                    {
                        "label": "Malta",
                        "value": "Malta"
                    },
                    {
                        "label": "Marshall Islands",
                        "value": "Marshall Islands"
                    },
                    {
                        "label": "Martinique",
                        "value": "Martinique"
                    },
                    {
                        "label": "Mauritania",
                        "value": "Mauritania"
                    },
                    {
                        "label": "Mauritius",
                        "value": "Mauritius"
                    },
                    {
                        "label": "Mayotte",
                        "value": "Mayotte"
                    },
                    {
                        "label": "Mexico",
                        "value": "Mexico"
                    },
                    {
                        "label": "Micronesia, Federated States of",
                        "value": "Micronesia, Federated States of"
                    },
                    {
                        "label": "Moldova, Republic of",
                        "value": "Moldova, Republic of"
                    },
                    {
                        "label": "Monaco",
                        "value": "Monaco"
                    },
                    {
                        "label": "Mongolia",
                        "value": "Mongolia"
                    },
                    {
                        "label": "Montserrat",
                        "value": "Montserrat"
                    },
                    {
                        "label": "Morocco",
                        "value": "Morocco"
                    },
                    {
                        "label": "Mozambique",
                        "value": "Mozambique"
                    },
                    {
                        "label": "Myanmar",
                        "value": "Myanmar"
                    },
                    {
                        "label": "Namibia",
                        "value": "Namibia"
                    },
                    {
                        "label": "Nauru",
                        "value": "Nauru"
                    },
                    {
                        "label": "Nepal",
                        "value": "Nepal"
                    },
                    {
                        "label": "Netherlands",
                        "value": "Netherlands"
                    },
                    {
                        "label": "Netherlands Antilles",
                        "value": "Netherlands Antilles"
                    },
                    {
                        "label": "New Caledonia",
                        "value": "New Caledonia"
                    },
                    {
                        "label": "New Zealand",
                        "value": "New Zealand"
                    },
                    {
                        "label": "Nicaragua",
                        "value": "Nicaragua"
                    },
                    {
                        "label": "Niger",
                        "value": "Niger"
                    },
                    {
                        "label": "Nigeria",
                        "value": "Nigeria"
                    },
                    {
                        "label": "Niue",
                        "value": "Niue"
                    },
                    {
                        "label": "Norfolk Island",
                        "value": "Norfolk Island"
                    },
                    {
                        "label": "Northern Mariana Islands",
                        "value": "Northern Mariana Islands"
                    },
                    {
                        "label": "Norway",
                        "value": "Norway"
                    },
                    {
                        "label": "Oman",
                        "value": "Oman"
                    },
                    {
                        "label": "Pakistan",
                        "value": "Pakistan"
                    },
                    {
                        "label": "Palau",
                        "value": "Palau"
                    },
                    {
                        "label": "Palestinian Territory, Occupied",
                        "value": "Palestinian Territory, Occupied"
                    },
                    {
                        "label": "Panama",
                        "value": "Panama"
                    },
                    {
                        "label": "Papua New Guinea",
                        "value": "Papua New Guinea"
                    },
                    {
                        "label": "Paraguay",
                        "value": "Paraguay"
                    },
                    {
                        "label": "Peru",
                        "value": "Peru"
                    },
                    {
                        "label": "Philippines",
                        "value": "Philippines"
                    },
                    {
                        "label": "Pitcairn",
                        "value": "Pitcairn"
                    },
                    {
                        "label": "Poland",
                        "value": "Poland"
                    },
                    {
                        "label": "Portugal",
                        "value": "Portugal"
                    },
                    {
                        "label": "Puerto Rico",
                        "value": "Puerto Rico"
                    },
                    {
                        "label": "Qatar",
                        "value": "Qatar"
                    },
                    {
                        "label": "Reunion",
                        "value": "Reunion"
                    },
                    {
                        "label": "Romania",
                        "value": "Romania"
                    },
                    {
                        "label": "Russian Federation",
                        "value": "Russian Federation"
                    },
                    {
                        "label": "RWANDA",
                        "value": "RWANDA"
                    },
                    {
                        "label": "Saint Helena",
                        "value": "Saint Helena"
                    },
                    {
                        "label": "Saint Kitts and Nevis",
                        "value": "Saint Kitts and Nevis"
                    },
                    {
                        "label": "Saint Lucia",
                        "value": "Saint Lucia"
                    },
                    {
                        "label": "Saint Pierre and Miquelon",
                        "value": "Saint Pierre and Miquelon"
                    },
                    {
                        "label": "Saint Vincent and the Grenadines",
                        "value": "Saint Vincent and the Grenadines"
                    },
                    {
                        "label": "Samoa",
                        "value": "Samoa"
                    },
                    {
                        "label": "San Marino",
                        "value": "San Marino"
                    },
                    {
                        "label": "Sao Tome and Principe",
                        "value": "Sao Tome and Principe"
                    },
                    {
                        "label": "Saudi Arabia",
                        "value": "Saudi Arabia"
                    },
                    {
                        "label": "Senegal",
                        "value": "Senegal"
                    },
                    {
                        "label": "Serbia and Montenegro",
                        "value": "Serbia and Montenegro"
                    },
                    {
                        "label": "Seychelles",
                        "value": "Seychelles"
                    },
                    {
                        "label": "Sierra Leone",
                        "value": "Sierra Leone"
                    },
                    {
                        "label": "Singapore",
                        "value": "Singapore"
                    },
                    {
                        "label": "Slovakia",
                        "value": "Slovakia"
                    },
                    {
                        "label": "Slovenia",
                        "value": "Slovenia"
                    },
                    {
                        "label": "Solomon Islands",
                        "value": "Solomon Islands"
                    },
                    {
                        "label": "Somalia",
                        "value": "Somalia"
                    },
                    {
                        "label": "South Africa",
                        "value": "South Africa"
                    },
                    {
                        "label": "South Georgia and the South Sandwich Islands",
                        "value": "South Georgia and the South Sandwich Islands"
                    },
                    {
                        "label": "Spain",
                        "value": "Spain"
                    },
                    {
                        "label": "Sri Lanka",
                        "value": "Sri Lanka"
                    },
                    {
                        "label": "Sudan",
                        "value": "Sudan"
                    },
                    {
                        "label": "Suriname",
                        "value": "Suriname"
                    },
                    {
                        "label": "Svalbard and Jan Mayen",
                        "value": "Svalbard and Jan Mayen"
                    },
                    {
                        "label": "Swaziland",
                        "value": "Swaziland"
                    },
                    {
                        "label": "Sweden",
                        "value": "Sweden"
                    },
                    {
                        "label": "Switzerland",
                        "value": "Switzerland"
                    },
                    {
                        "label": "Syrian Arab Republic",
                        "value": "Syrian Arab Republic"
                    },
                    {
                        "label": "Taiwan, Province of China",
                        "value": "Taiwan, Province of China"
                    },
                    {
                        "label": "Tajikistan",
                        "value": "Tajikistan"
                    },
                    {
                        "label": "Tanzania, United Republic of",
                        "value": "Tanzania, United Republic of"
                    },
                    {
                        "label": "Thailand",
                        "value": "Thailand"
                    },
                    {
                        "label": "Timor-Leste",
                        "value": "Timor-Leste"
                    },
                    {
                        "label": "Togo",
                        "value": "Togo"
                    },
                    {
                        "label": "Tokelau",
                        "value": "Tokelau"
                    },
                    {
                        "label": "Tonga",
                        "value": "Tonga"
                    },
                    {
                        "label": "Trinidad and Tobago",
                        "value": "Trinidad and Tobago"
                    },
                    {
                        "label": "Tunisia",
                        "value": "Tunisia"
                    },
                    {
                        "label": "Turkey",
                        "value": "Turkey"
                    },
                    {
                        "label": "Turkmenistan",
                        "value": "Turkmenistan"
                    },
                    {
                        "label": "Turks and Caicos Islands",
                        "value": "Turks and Caicos Islands"
                    },
                    {
                        "label": "Tuvalu",
                        "value": "Tuvalu"
                    },
                    {
                        "label": "Uganda",
                        "value": "Uganda"
                    },
                    {
                        "label": "Ukraine",
                        "value": "Ukraine"
                    },
                    {
                        "label": "United Arab Emirates",
                        "value": "United Arab Emirates"
                    },
                    {
                        "label": "United Kingdom",
                        "value": "United Kingdom"
                    },
                    {
                        "label": "United States",
                        "value": "United States"
                    },
                    {
                        "label": "United States Minor Outlying Islands",
                        "value": "United States Minor Outlying Islands"
                    },
                    {
                        "label": "Uruguay",
                        "value": "Uruguay"
                    },
                    {
                        "label": "Uzbekistan",
                        "value": "Uzbekistan"
                    },
                    {
                        "label": "Vanuatu",
                        "value": "Vanuatu"
                    },
                    {
                        "label": "Venezuela",
                        "value": "Venezuela"
                    },
                    {
                        "label": "Viet Nam",
                        "value": "Viet Nam"
                    },
                    {
                        "label": "Virgin Islands, British",
                        "value": "Virgin Islands, British"
                    },
                    {
                        "label": "Virgin Islands, U.S.",
                        "value": "Virgin Islands, U.S."
                    },
                    {
                        "label": "Wallis and Futuna",
                        "value": "Wallis and Futuna"
                    },
                    {
                        "label": "Western Sahara",
                        "value": "Western Sahara"
                    },
                    {
                        "label": "Yemen",
                        "value": "Yemen"
                    },
                    {
                        "label": "Zambia",
                        "value": "Zambia"
                    },
                    {
                        "label": "Zimbabwe",
                        "value": "Zimbabwe"
                    }
                ],
                "readOnly": false,
                "required": true,
                "requiredBoolean": true
            },
            {
                "category": "input",
                "type": "text",
                "name": "isFinalYear",
                "label": "Is Final Year",
                "class": "input-wrap",
                "readOnly": true,
                "required": false,
                "requiredBoolean": false,
                "clear": false
            },
            {
                "category": "input",
                "type": "text",
                "name": "campusName",
                "label": "Campus Name",
                "class": "input-wrap",
                "readOnly": true,
                "required": false,
                "requiredBoolean": false,
                "clear": false
            },
            {
                "type": "heading",
                "label": "Program Details",
                "class": "form-hd"
            },
            {
                "category": "input",
                "type": "text",
                "name": "programPlan",
                "label": "Class/Batch",
                "class": "input-wrap",
                "readOnly": true,
                "required": false,
                "requiredBoolean": false,
                "clear": false
            },
            {
                "type": "heading",
                "label": "Contact",
                "class": "form-hd"
            },
            {
                "category": "input",
                "type": "email",
                "name": "email",
                "label": "Email",
                "class": "input-wrap",
                "readOnly": true,
                "required": false,
                "requiredBoolean": false,
                "clear": false
            },
            {
                "category": "input",
                "type": "number",
                "name": "contactStudent",
                "label": "Phone Number",
                "class": "input-wrap",
                "readOnly": true,
                "required": false,
                "requiredBoolean": false,
                "clear": false
            },
            {
                "type": "heading",
                "label": "Currency",
                "class": "form-hd"
            },
            {
                "type": "select",
                "name": "currenyType",
                "class": "select-input-wrap setup-input-wrap",
                "label": "Currency",
                "readOnly": false,
                "required": true,
                "requiredBoolean": true,
                "clear": false,
                "options": [
                    {
                        "label": "INR",
                        "value": "INR"
                    },
                    {
                        "label": "USD",
                        "value": "USD"
                    }
                ],
                "defaultValue": "INR"
            },
            {
                "category": "input",
                "type": "number",
                "name": "exchangeRate",
                "label": "Exchange Rate",
                "class": "input-wrap",
                "readOnly": true,
                "required": true,
                "requiredBoolean": true,
                "clear": false
            }
        ],
        "parent Details": [
            {
                "type": "heading",
                "label": "Basic Details",
                "class": "form-hd"
            },
            {
                "category": "input",
                "type": "text",
                "name": "fatherName",
                "label": "Name",
                "class": "input-wrap branch-input",
                "readOnly": false,
                "required": false,
                "requiredBoolean": false
            },
            {
                "category": "input",
                "type": "email",
                "name": "emailParent",
                "label": "Email",
                "class": "input-wrap branch-input",
                "readOnly": false,
                "required": false,
                "requiredBoolean": false
            },
            {
                "category": "input",
                "type": "text",
                "name": "contactParent",
                "label": "Phone Number",
                "class": "input-wrap branch-input",
                "readOnly": false,
                "required": false,
                "requiredBoolean": false
            },
            {
                "type": "heading",
                "label": "Address",
                "class": "form-hd"
            },
            {
                "category": "input",
                "type": "text",
                "name": "addressParent-1",
                "label": "Address-1",
                "class": "input-wrap branch-input",
                "readOnly": false,
                "required": false,
                "requiredBoolean": false
            },
            {
                "category": "input",
                "type": "text",
                "name": "addressParent-2",
                "label": "Address-2",
                "class": "input-wrap branch-input",
                "readOnly": false,
                "required": false,
                "requiredBoolean": false
            },
            {
                "category": "input",
                "type": "text",
                "name": "addressParent-3",
                "label": "Address-3",
                "class": "input-wrap branch-input",
                "readOnly": false,
                "required": false,
                "requiredBoolean": false
            },
            {
                "category": "input",
                "type": "text",
                "name": "City",
                "label": "City",
                "class": "input-wrap branch-input",
                "readOnly": false,
                "required": false,
                "requiredBoolean": false
            },
            {
                "category": "input",
                "type": "text",
                "name": "state",
                "label": "State",
                "class": "input-wrap branch-input",
                "readOnly": false,
                "required": false,
                "requiredBoolean": false
            },
            {
                "category": "input",
                "type": "text",
                "name": "country",
                "label": "Country",
                "class": "input-wrap branch-input",
                "readOnly": false,
                "required": false,
                "requiredBoolean": false
            },
            {
                "category": "input",
                "type": "text",
                "name": "pincode",
                "label": "Pincode",
                "class": "input-wrap branch-input",
                "readOnly": false,
                "required": false,
                "requiredBoolean": false
            }
        ]
    },
    "containerNav": {
        "isBack": false,
        "name": "List of Students",
        "isName": true,
        "isSearch": true,
        "isSort": false,
        "isPrint": true,
        "isDownload": true,
        "isShare": false,
        "isNew": false,
        "newName": "New",
        "isSubmit": false
    },
    "HistoryData": [
        {
            "createdAt": "2020-06-30T12:16:54",
            "created_at": "23/07/2020 (02:14 PM)",
            "currentData": "",
            "description": [
                "First Name was changed from Adibha to Adiba"
            ],
            "entity": "Student",
            "entityInstanceId": "5efb2d36540313064d84f526",
            "orgEmail": "demouser233@demoautoparts.com",
            "orgId": "5eeb331b4ada2a1f00727980",
            "updatedAt": "2020-06-30T12:16:54",
            "userId": "justin@webdesignmagics.com",
            "userDetails": "prashanth@wdm.com",
            "version": 2,
            "__v": 0,
            "_id": "5efb2d36540313064d84f527"
        },
        {
            "createdAt": "2020-06-30T12:16:54",
            "created_at": "23/07/2020 (12:14 PM)",
            "currentData": "",
            "description": [
                "Adibha Nisar was added"
            ],
            "entity": "Student",
            "entityInstanceId": "5efb2d36540313064d84f526",
            "orgEmail": "demouser233@demoautoparts.com",
            "orgId": "5eeb331b4ada2a1f00727980",
            "updatedAt": "2020-06-30T12:16:54",
            "userId": "justin@webdesignmagics.com",
            "userDetails": "prashanth@wdm.com",
            "version": 1,
            "__v": 0,
            "_id": "5efb2d36540313064d84f527"
        }
    ]
}