{
    "CashPayment": [
        {
            "category": "input",
            "type": "text",
            "name": "studentID",
            "label": "Student Registeration ID",
            "class": "input-wrap student-id",
            "readOnly": true,
            "required": false
        },
        {
            "category": "input",
            "type": "text",
            "name": "parentName",
            "label": "Parent Name",
            "class": "input-wrap parent-name",
            "readOnly": false,
            "required": false
        },
        {
            "category": "button",
            "type": "submit",
            "name": "cashBtn",
            "label": "Confirm Payment",
            "class": "primary-btn cash-payment-btn",
            "apiDetails": [
                {
                    "baseUri": "portal",
                    "apiUri": "1",
                    "method": "POST"
                }
            ]
        }
    ],
    "CardPayment": [
        {
            "category": "input",
            "type": "text",
            "name": "studentID",
            "label": "Student Registeration ID",
            "class": "input-wrap student-id",
            "readOnly": true,
            "required": false
        },
        {
            "category": "input",
            "type": "text",
            "name": "parentName",
            "label": "Parent Name",
            "class": "input-wrap parent-name",
            "readOnly": false,
            "required": false
        },
        {
            "type": "select",
            "name": "cardType",
            "class": "input-wrap cardType-select",
            "label": "Card Type",
            "options": [
                {
                    "label": "Visa",
                    "value": "visa"
                },
                {
                    "label": "Master Card",
                    "value": "mastercard"
                }
            ],
            "required": false,
            "requiredBoolean": false
        },
        {
            "category": "input",
            "type": "text",
            "name": "cardName",
            "label": "Name on Card",
            "class": "input-wrap card-name",
            "readOnly": false,
            "required": true
        },
        {
            "category": "input",
            "type": "number",
            "name": "Card Number",
            "label": "Card Number",
            "class": "input-wrap card-number",
            "readOnly": false,
            "required": true,
            "requiredBoolean": true
        },
        {
            "category": "input",
            "type": "text",
            "name": "transactionNumber",
            "label": "Transaction Number",
            "class": "input-wrap txn-number",
            "readOnly": false,
            "required": true
        },
        {
            "category": "button",
            "type": "submit",
            "label": "Confirm Payment",
            "name": "cardBtn",
            "class": "primary-btn card-payment-btn",
            "apiDetails": [
                {
                    "baseUri": "portal",
                    "apiUri": "1",
                    "method": "POST"
                }
            ]
        }
    ],
    "ChequePayment":[
        {
            "category": "input",
            "type": "text",
            "name": "studentID",
            "label": "Student Registeration ID",
            "class": "input-wrap",
            "readOnly": true,
            "required": false
        },
        {
            "category": "input",
            "type": "text",
            "name": "parentName",
            "label": "Parent Name",
            "class": "input-wrap parent-name",
            "readOnly": false,
            "required": false
        },
        {
            "category": "input",
            "type": "text",
            "name": "ChequeNumber",
            "label": "Cheque Number",
            "class": "input-wrap parent-name",
            "readOnly": false,
            "required": true,
            "requiredBoolean": true
        },
        {
            "category": "input",
            "type": "text",
            "name": "BankName",
            "label": "Bank Name",
            "class": "input-wrap parent-name",
            "readOnly": false,
            "required": true,
            "requiredBoolean": true
        },
        {
            "category": "input",
            "type": "text",
            "name": "BranchType",
            "label": "Branch",
            "class": "input-wrap parent-name",
            "readOnly": false,
            "required": true,
            "requiredBoolean": true
        },
        {
            "type": "select",
            "name": "ChequeStatus",
            "class": "input-wrap cardType-select",
            "label": "Status",
            "options": [
                {
                    "label": "Accepted",
                    "value": "Accepted"
                },
                {
                    "label": "Deposited",
                    "value": "Deposited"
                },
                {
                    "label": "Pending",
                    "value": "Pending"
                },
                {
                    "label": "Rejected",
                    "value": "Rejected"
                },
                {
                    "label": "Paid",
                    "value": "Paid"
                }
            ],
            "required": true,
            "requiredBoolean": true
        },
        {
            "category": "button",
            "type": "submit",
            "label": "Confirm Payment",
            "name": "chequeBtn",
            "class": "primary-btn card-payment-btn",
            "apiDetails": [
                {
                    "baseUri": "portal",
                    "apiUri": "1",
                    "method": "POST"
                }
            ]
        }
    ]
}