<?xml version="1.0" standalone="no"?>
<!DOCTYPE svg PUBLIC "-//W3C//DTD SVG 1.1//EN" "http://www.w3.org/Graphics/SVG/1.1/DTD/svg11.dtd" >
<svg xmlns="http://www.w3.org/2000/svg">
<metadata>Generated by IcoMoon</metadata>
<defs>
<font id="zq-payroll-recon" horiz-adv-x="1024">
<font-face units-per-em="1024" ascent="960" descent="-64" />
<missing-glyph horiz-adv-x="1024" />
<glyph unicode="&#x20;" horiz-adv-x="512" d="" />
<glyph unicode="&#xe900;" glyph-name="reconciliation" d="M938.667 738.987l-486.827-487.253-180.907 180.907 60.16 60.16 120.747-120.747 426.667 426.667 60.16-59.733zM844.373 523.947c5.547-24.32 8.96-49.92 8.96-75.947 0-188.587-152.747-341.333-341.333-341.333s-341.333 152.747-341.333 341.333c0 188.587 152.747 341.333 341.333 341.333 67.413 0 129.707-19.627 182.613-53.333l61.44 61.44c-69.12 48.64-153.173 77.227-244.053 77.227-235.52 0-426.667-191.147-426.667-426.667s191.147-426.667 426.667-426.667 426.667 191.147 426.667 426.667c0 50.773-9.387 99.413-25.6 144.64l-68.693-68.693z" />
</font></defs></svg>