{
    "RefundData": [
    {
        "category": "input",
        "type": "text",
        "name": "accountName",
        "label": "Account Name",
        "class": "input-wrap login-input",
        "readOnly": false,
        "required": true,
        "requiredBoolean": true
    },
    {
        "category": "input",
        "type": "text",
        "name": "accountnumber",
        "label": "Account Number",
        "class": "input-wrap login-input",
        "readOnly": false,
        "required": true,
        "requiredBoolean": true
    },
    {
        "category": "input",
        "type": "text",
        "name": "bankName",
        "label": "Bank Name",
        "class": "input-wrap login-input",
        "readOnly": false,
        "required": true,
        "requiredBoolean": true
    },
    {
        "category": "input",
        "type": "text",
        "name": "bankifsc",
        "label": "Bank IFSC",
        "class": "input-wrap login-input",
        "readOnly": false,
        "required": true,
        "requiredBoolean": true
    },
    {
        "category": "button",
        "type": "submit",
        "label": "Refund",
        "class": "primary-btn login-btn"
    }
],
    "AdjustRefundJson": [
        
        {
            "category": "input",
            "type": "text",
            "name": "amount",
            "label": "Adjust Amount",
            "class": "input-wrap login-input",
            "readOnly": true,
            "required": false,
            "requiredBoolean": false
        }
    ],
    "RefundAdjustJson": [
        
        {
            "category": "input",
            "type": "text",
            "name": "amount",
            "label": "Refund Amount",
            "class": "input-wrap login-input",
            "readOnly": true,
            "required": false,
            "requiredBoolean": false
        }
    ],
    "RefundAdjust": [
        {
            "category": "input",
            "type": "text",
            "name": "adjustAmount",
            "label": "Adjust Amount",
            "class": "input-wrap login-input",
            "readOnly": true,
            "required": false,
            "requiredBoolean": false,
            "defaultValue":"2000.00"
        },
        
        {
            "category": "input",
            "type": "text",
            "name": "refundAmount",
            "label": "Refund Amount",
            "class": "input-wrap login-input",
            "readOnly": true,
            "required": false,
            "requiredBoolean": false,
            "defaultValue":"1000.00"
        }
    ]
}