{
    "tableData": [
        {
            "ID": "LOAN001",
            "Provider": "ICICI Bank",
            "Created on": "24-12-2020",
            "Created By": "HKBK College of Engineering",
            "Status": "Active"
        },
        {
            "ID": "LOAN002",
            "Provider": "HDFC Bank",
            "Created on": "24-12-2020",
            "Created By": "HKBK College of Engineering",
            "Status": "Active"
        },
        {
            "ID": "LOAN003",
            "Provider": "SBI Bank",
            "Created on": "24-12-2020",
            "Created By": "HKBK College of Engineering",
            "Status": "Active"
        }
    ],
    "formJson": [
        {
            "category": "input",
            "type": "text",
            "name": "loanID",
            "label": "ID",
            "class": "input-wrap",
            "readOnly": true,
            "required": false,
            "requiredBoolean": true,
            "clear": false
        },
        {
            "category": "input",
            "type": "text",
            "name": "provider",
            "label": "Provider",
            "class": "input-wrap branch-input input-margin",
            "required": true,
            "requiredBoolean": true,
            "readOnly": false
           
        },
        {
            "type": "heading",
            "label": "Bank Account",
            "class": "form-hd info-input-label"
        },
        {
            "type": "select",
            "name": "bankname",
            "class": "select-input-wrap",
            "label": "Bank Name",
            "readOnly": false,
            "required": true,
            "requiredBoolean": true,
            "clear": false,
            "options": [] 
        },
        {
            "category": "input",
            "type": "text",
            "name": "bankaccountname",
            "label": "Bank Account Name",
            "class": "input-wrap branch-input input-margin",
            "readOnly": false,
            "required": true,
            "requiredBoolean": true
        },
        {
            "category": "input",
            "type": "text",
            "name": "bankaccountnumber",
            "label": "Bank Account Number",
            "class": "input-wrap branch-input",
            "readOnly": false,
            "required": true,
            "requiredBoolean": true
        },
        {
            "category": "button",
            "type": "save",
            "label": "Save",
            "class": "secondary-btn form-save-btn"
        },
        {
            "category": "button",
            "type": "submit",
            "label": "Submit",
            "class": "primary-btn form-submit-btn",
            "apiDetails": [
                {
                    "baseUri": "newMaster",
                    "apiUri": "/edu/loans",
                    "method": "POST"
                }
            ]
        }
    ]
}