[
    {
        "category": "radio",
        "name": "receipts",
        "label": "",
        "options": [
            {
                "value": "immediately",
                "label": "Immediately"
            },
            {
                "value": "afterReconcilation",
                "label": "After Reconcilation"
            }
        ],
        "defaultValue": "",
        "class": "input-wrap input-settings-radio",
        "readOnly": true,
        "required": false,
        "requiredBoolean": false,
        "clear": false
    }
]