[
    {
        "type": "select",
        "name": "logos",
        "class": "select-input-wrap setup-input-wrap settings-address-input fees-mapping-select",
        "label": "Select Logos",
        "options": [
            {
                "value": "0",
                "label": "Parent on Left"
            },
            {
                "value": "1",
                "label": "Parent on Left, Campus on Right"
            },
            {
                "value": "2",
                "label": "Campus on Left, Parent on Right"
            },
            {
                "value": "3",
                "label": "Campus on Left"
            }
        ],
        "placement": "bottom",
        "readOnly": false,
        "required": false,
        "requiredBoolean": false
    }
]