{
  "bank": "HDFC",
  "doc_type": "BANK_STATEMENT",
  "account_number": "00531050073592|DEMO EDUCATION INSTITUTE|ODA|0183",
  "header": [
    "Value Date",
    "Transaction Date",
    "Cheque No",
    "Transaction Remarks",
    "Withdrawal(INR)",
    "Deposit(INR)",
    "Account Balance(INR)",
    "Transaction Ref"
  ],
  "entries": [
    [
      "02/12/2020",
      "02/12/2020",
      "-",
      "NEFT-ABHISHEK KUMAR SAH",
      "0.0",
      "71,000.00",
      "-2,02,33,745.96",
      "S4033444"
    ],
    [
      "02/12/2020",
      "02/12/2020",
      "-",
      "NEFT-Mohammed Hussain",
      "0.0",
      "75,000.00",
      "-2,03,08,745.96",
      "S4055443"
    ],
    [
      "02/12/2020",
      "02/12/2020",
      "-",
      "JKB MRL POS PAY 12/02/2020 12:0",
      "0.0",
      "71,000.00",
      "-2,03,79,745.96",
      "S407773"
    ],
    [
      "02/12/2020",
      "02/12/2020",
      "-",
      "NEFT-Milancy S T",
      "0.0",
      "31,000.00",
      "-2,03,79,745.96",
      "S407223"
    ],
    [
      "02/12/2020",
      "02/12/2020",
      "-",
      "WEB TRACK LLC",
      "20,000.00",
      "0.0",
      "-2,03,59,745.96",
      "S23223913"
    ],
    [
      "02/12/2020",
      "02/12/2020",
      "234433",
      "JAFFAR SADIQ",
      "0.0",
      "50,000.0",
      "-2,04,00,745.96",
      "AC43192"
    ],
    [
      "02/12/2020",
      "02/12/2020",
      "32223",
      "BALDEV LAMICHHANE",
      "0.0",
      "80,000.0",
      "-2,04,89,745.96",
      "AC43192"
    ],
    [
      "02/12/2020",
      "02/12/2020",
      "-",
      "NEFT-Chaithra G",
      "0.0",
      "70,000.00",
      "-2,05,59,745.96",
      "RG888723"
    ],
    [
      "02/12/2020",
      "02/12/2020",
      "-",
      "NEFT-Fathima Azra",
      "0.0",
      "30,000.00",
      "-2,05,89,745.96",
      "RG888723"
    ],
    [
      "03/12/2020",
      "03/12/2020",
      "-",
      "Firoj Alam-1HK17IS022",
      "0.0",
      "130,000.00",
      "-2,07,19,745.96",
      "RG843723"
    ],
    [
      "03/12/2020",
      "03/12/2020",
      "-",
      "NEFT-RAZORPAY SOFTWARE PRIVATE LIMITE-UTIB0001306",
      "0.0",
      "130,000.00",
      "-2,08,49,745.96",
      "IB91923"
    ],
    [
      "03/12/2020",
      "03/12/2020",
      "-",
      "NEFT-RAZORPAY SOFTWARE PRIVATE LIMITE-UTIB0982206",
      "0.0",
      "71,000.00",
      "-2,09,20,745.96",
      "IB93323"
    ],
    [
      "03/12/2020",
      "03/12/2020",
      "-",
      "NEFT MUNAVAR BASHA K",
      "0.0",
      "71,000.00",
      "-2,09,91,745.96",
      "RG888723"
    ],
    [
      "03/12/2020",
      "03/12/2020",
      "100901",
      "K Srinivas",
      "0.0",
      "130,000.0",
      "-2,11,21,745.96",
      "AC43192"
    ],
    [
      "04/12/2020",
      "04/12/2020",
      "-",
      "NEFT Nasreen Banu M",
      "0.0",
      "71,000.0",
      "-2,11,92,745.96",
      "CAC22192"
    ],
    [
      "04/12/2020",
      "04/12/2020",
      "-",
      "NEFT Mohammed Yaseen",
      "0.0",
      "19,000",
      "-2,12,11,745.96",
      "VARC3192"
    ],
    [
      "04/12/2020",
      "04/12/2020",
      "-",
      "NEFT Ramiz Hussain",
      "0.0",
      "85,000",
      "-2,12,96,745.96",
      "BRAC77615"
    ],
    [
      "04/12/2020",
      "04/12/2020",
      "933227",
      "Rakshitha S",
      "0.0",
      "130,000",
      "-2,15,56,745.96",
      "WC33615"
    ],
    [
      "04/12/2020",
      "04/12/2020",
      "100992",
      "Ramiz Hussain",
      "0.0",
      "85,000",
      "-2,16,41,745.96",
      "YZ3615"
    ],
    [
      "05/12/2020",
      "05/12/2020",
      "-",
      "NEFT Sheba Begum",
      "0.0",
      "71,000",
      "-2,17,12,745.96",
      "BRAC77615"
    ],
    [
      "05/12/2020",
      "05/12/2020",
      "400402",
      "Ramiz Hussain",
      "0.0",
      "105,000",
      "-2,18,17,745.96",
      "BZ1615"
    ],
    [
      "05/12/2020",
      "05/12/2020",
      "-",
      "NEFT Shagufa Tazeen",
      "0.0",
      "130,000",
      "-2,19,47,745.96",
      "ZZE165"
    ],
    [
      "06/12/2020",
      "06/12/2020",
      "-",
      "NEFT Bharath k",
      "0.0",
      "130,000",
      "-2,20,77,745.96",
      "RSE121"
    ],
    [
      "06/12/2020",
      "06/12/2020",
      "-",
      "JKB MRL POS PAY 12/06/2020 11:0",
      "0.0",
      "105,000.00",
      "-2,21,82,745.96",
      "S412323"
    ],
    [
      "06/12/2020",
      "06/12/2020",
      "-",
      "JKB MRL POS PAY 12/06/2020 12:0",
      "0.0",
      "71,000.00",
      "-2,22,53,745.96",
      "D43223"
    ],
    [
      "07/12/2020",
      "07/12/2020",
      "-",
      "NEFT Mohd Shahbazul Quadri",
      "0.0",
      "71,000",
      "-2,23,24,745.96",
      "BSE221"
    ],
    [
      "07/12/2020",
      "07/12/2020",
      "-",
      "NEFT Shashank C",
      "0.0",
      "71,000",
      "-2,23,95,745.96",
      "TSE021"
    ],
    [
      "07/12/2020",
      "07/12/2020",
      "-",
      "JKB MRL POS PAY 12/07/2020 12:3",
      "0.0",
      "71,000.00",
      "-2,24,66,745.96",
      "S412323"
    ],
    [
      "07/12/2020",
      "07/12/2020",
      "-",
      "JKB MRL POS PAY 12/07/2020 12:40",
      "0.0",
      "71,000.00",
      "-2,25,37,745.96",
      "DEN723"
    ],
    [
      "08/12/2020",
      "08/12/2020",
      "100021",
      "Prateek Kumar",
      "140,000.00",
      "0.0",
      "-2,28,07,745.96",
      "S11969"
    ],
    [
      "08/12/2020",
      "08/12/2020",
      "-",
      "JKB MRL POS PAY 12/08/2020 16:10",
      "0.0",
      "18,090.00",
      "-2,28,25,835.96",
      "RS9023"
    ],
    [
      "08/12/2020",
      "08/12/2020",
      "-",
      "JKB MRL POS PAY 12/08/2020 16:18",
      "0.0",
      "71,000.00",
      "-2,28,96,835.96",
      "CP22023"
    ],
    [
      "08/12/2020",
      "08/12/2020",
      "-",
      "NEFT Rakshitha R",
      "0.0",
      "80,340",
      "-2,29,77,175.96",
      "WTR031"
    ],
    [
      "09/12/2020",
      "09/12/2020",
      "-",
      "NEFT SANIYA SAHAR",
      "0.0",
      "140,000",
      "-2,31,17,175.96",
      "RTN1121"
    ],
    [
      "09/12/2020",
      "09/12/2020",
      "120001",
      "SARFRAS AHMED MA",
      "0.0",
      "140,000.00",
      "-2,32,57,175.96",
      "TS0101"
    ],
    [
      "09/12/2020",
      "09/12/2020",
      "21221",
      "GORKHA SECURITY SERVICES",
      "37,440.00",
      "0.0",
      "-2,32,19,735.96",
      "DWB771"
    ],
    [
      "10/12/2020",
      "10/12/2020",
      "-",
      "NEFT Shabreen Taj",
      "0.0",
      "140,000.00",
      "-2,33,59,735.96",
      "RTN1121"
    ],
    [
      "10/12/2020",
      "10/12/2020",
      "210010",
      "SVarshitha",
      "0.0",
      "140,000.00",
      "-2,34,99,735.96",
      "BDS0101"
    ],
    [
      "10/12/2020",
      "10/12/2020",
      "230010",
      "Shahbaj Alam",
      "0.0",
      "140,000.00",
      "-2,36,39,735.96",
      "VYZ10029"
    ],
    [
      "10/12/2020",
      "10/12/2020",
      "877198",
      "THE IMPRINT TECHNOLOGIES",
      "80,535.00",
      "0.0",
      "-2,35,59,200.96",
      "S38670345"
    ],
    [
      "11/12/2020",
      "11/12/2020",
      "-",
      "JKB MRL POS PAY 12/11/2020 16:0",
      "0.0",
      "130,000.00",
      "-2,36,89,200.96",
      "TRS670345"
    ],
    [
      "11/12/2020",
      "11/12/2020",
      "210002",
      "Sidra Mariam M",
      "0.0",
      "140,000.00",
      "-2,38,29,200.96",
      "VTB69875"
    ],
    [
      "11/12/2020",
      "11/12/2020",
      "-",
      "NEFT sofiya saifi - BOB10019",
      "0.0",
      "80,340.00",
      "-2,39,09,540.96",
      "RTN1121"
    ],
    [
      "12/12/2020",
      "12/12/2020",
      "-",
      "NEFT Sudip Waiba",
      "0.0",
      "100,000.00",
      "-2,40,09,540.96",
      "BRC1121"
    ],
    [
      "12/12/2020",
      "12/12/2020",
      "-",
      "NEFT SSHAZMEEN TAJ - AXIS19920",
      "0.0",
      "100,000.00",
      "-2,41,09,540.96",
      "BES2221"
    ],
    [
      "13/12/2020",
      "13/12/2020",
      "567100",
      "Sushanshi Kumari",
      "0.0",
      "140,000.00",
      "-2,42,49,540.96",
      "RES2221"
    ],
    [
      "13/12/2020",
      "13/12/2020",
      "-",
      "NEFT Thouhidpasha D",
      "0.0",
      "19,090.00",
      "-2,42,68,630.96",
      "NES3321"
    ],
    [
      "14/12/2020",
      "14/12/2020",
      "-",
      "NEFT Tajuddin",
      "0.0",
      "130,000.00",
      "-2,43,98,630.96",
      "BRC3211"
    ],
    [
      "14/12/2020",
      "14/12/2020",
      "-",
      "NEFT Tamim Ahmed",
      "0.0",
      "130,000.00",
      "-2,452,86,30.96",
      "VRC3321"
    ]
  ]
}
