{
    "containerNav": {
        "isBack": false,
        "name": "List of Scholarships",
        "isName": true,
        "isSearch": false,
        "isSort": false,
        "isPrint": true,
        "isDownload": false,
        "isShare": false,
        "isNew": false,
        "newName": "New",
        "isSubmit": false
    },
    "sampleStudentDetails": [
        {
            "ID": "SCH001",
            "REG ID": "GHS10001",
            "STUDENT NAME": "Aarohi Jena",
            "Program Plan": "2020-Class 1",
            "Year of Joining": "2020",
            "Scholarship Provider": "KMDC",
            "Amount Sanctioned": "₹16,000.00",
            "Amount Received": "₹16,000.00",
            "Mode of payment": "Cheque",
            "Status": "Adjusted",
            "action": [
                {
                    "name": "Refund"
                },
                {
                    "name": "Adjust"
                }
            ]
        },
        {
            "ID": "SCH002",
            "REG ID": "GHS10002",
            "STUDENT NAME": "ANN TREASA ANIL",
            "Program Plan": "2020-Class 1",
            "Year of Joining": "2020",
            "Scholarship Provider": "KMDC",
            "Amount Sanctioned": "₹20,000.00",
            "Amount Received": "₹20,000.00",
            "Mode of payment": "NetBanking",
            "Status": "Refunded",
            "action": [
                {
                    "name": "Refund"
                },
                {
                    "name": "Adjust"
                }
            ]
        },
        {
            "ID": "SCH003",
            "REG ID": "GHS10003",
            "STUDENT NAME": "Aayush Laddha",
            "Program Plan": "2020-Class 1",
            "Year of Joining": "2020",
            "Scholarship Provider": "KMDC",
            "Amount Sanctioned": "₹25,000.00",
            "Amount Received": "₹25,000.00",
            "Mode of payment": "NetBanking",
            "Status": "Sanctioned",
            "action": [
                {
                    "name": "Refund"
                },
                {
                    "name": "Adjust"
                }
            ]
        }
    ],
    "formDataListPreview": {
        "General": [
            {
                "type": "heading",
                "label": "Student Details",
                "class": "form-hd"
            },
            {
                "category": "input",
                "type": "text",
                "name": "ID",
                "label": " ID",
                "class": "input-wrap branch-input",
                "readOnly": false,
                "required": true
            },
            {
                "category": "input",
                "type": "text",
                "name": "RegID",
                "label": "Register ID",
                "class": "input-wrap branch-input",
                "readOnly": false,
                "required": true
            },
            {
                "category": "input",
                "type": "text",
                "name": "StudentName",
                "label": "StudentName",
                "class": "input-wrap branch-input",
                "readOnly": false,
                "required": true
            },
            {
                "category": "input",
                "type": "text",
                "name": "ProgramPlan",
                "label": "Program Plan",
                "class": "input-wrap branch-input",
                "readOnly": false,
                "required": true
            },
            {
                "category": "input",
                "type": "text",
                "name": "YearOfJoin",
                "class": "input-wrap formalign",
                "label": "Year of Joining",
                "readOnly": false,
                "required": false,
                "paymentType": "Scholarship",
                "defaultValue": "2020"
            }
        ],
        "ScholarshipDetails": [
            {
                "type": "heading",
                "label": "Scholarship Details",
                "class": "form-hd"
            },
            {
                "category": "input",
                "type": "text",
                "name": "scholarshiptype",
                "class": "input-wrap formalign ",
                "label": "Scholarship Type",
                "readOnly": false,
                "required": true,
                "requiredBoolean":true,
                "paymentType": "Scholarship"
            },
            {
                "category": "input",
                "type": "text",
                "name": "scholarshipprovider",
                "class": "input-wrap formalign ",
                "label": "Scholarship Provider",
                "readOnly": false,
                "required": true,
                "requiredBoolean":true,
                "paymentType": "Scholarship"
            },
            {
                "category": "input",
                "type": "text",
                "name": "scholarshipamountsanctioned",
                "label": "Amount Sanctioned",
                "class": "input-wrap formalign",
                "readOnly": false,
                "required": true,
                "requiredBoolean":true,
                "paymentType": "Scholarship"
            },
            {
                "type": "heading",
                "label": "Transaction Details",
                "class": "form-hd"
            },
            {
                "category": "input",
                "type": "text",
                "name": "scholarshipamountreceived",
                "label": "Amount Paid",
                "class": "input-wrap formalign",
                "readOnly": false,
                "required": true,
                "requiredBoolean":true,
                "paymentType": "Scholarship"
            },
            {
                "category": "input",
                "type": "text",
                "name": "dateofreceipt",
                "label": "Date of Receipt",
                "class": "input-wrap formalign",
                "readOnly": false,
                "required": true,
                "requiredBoolean":true,
                "paymentType": "Scholarship",
                "defaultValue": "24/12/2020"
            },
            {
                "category": "input",
                "type": "text",
                "name": "modeofPayment",
                "label": "Mode of Paymenmt",
                "class": "input-wrap formalign",
                "readOnly": false,
                "required": true,
                "requiredBoolean":true,
                "paymentType": "Scholarship"
            },
            {
                "category": "input",
                "type": "text",
                "name": "ReceivedBank",
                "label": "Received Bank",
                "class": "input-wrap formalign",
                "readOnly": false,
                "required": true,
                "requiredBoolean":true,
                "paymentType": "Scholarship",
                "defaultValue": "HDFC"
            },
            {
                "category": "input",
                "type": "text",
                "name": "AccountNumber",
                "label": "Account Number",
                "class": "input-wrap formalign",
                "readOnly": false,
                "required": true,
                "requiredBoolean":true,
                "paymentType": "Scholarship",
                "defaultValue": "50125690732498"
            },
            {
                "category": "input",
                "type": "text",
                "name": "UtrNO",
                "label": "UTR NUmber",
                "class": "input-wrap formalign",
                "readOnly": false,
                "required": true,
                "requiredBoolean":true,
                "paymentType": "Scholarship",
                "defaultValue": "HDFC723948"
            },
            {
                "category": "input",
                "type": "text",
                "name": "status",
                "class": "input-wrap formalign ",
                "label": "Status",
                "readOnly": false,
                "required": true,
                "requiredBoolean":true,
                "paymentType": "Scholarship"
            }
        ]
    },
    "FetchStudentDetails": [
        {
            "category": "input",
            "type": "text",
            "name": "studentID",
            "label": "Student Registeration ID",
            "class": "input-wrap student-id",
            "readOnly": false,
            "required": true,
            "requiredBoolean": true
        },
        {
            "category": "button",
            "type": "submit",
            "label": "Fetch Details",
            "class": "primary-btn fetch-details-btn",
            "apiDetails": [
                {
                    "baseUri": "portal",
                    "apiUri": "1",
                    "method": "POST"
                }
            ]
        }
    ]
}