{
  "bank": "HDFC",
  "doc_type": "BANK_STATEMENT",
  "account_number": "00531050073592",
  "header": [
    "Date",
    "Narration",
    "Chq./Ref.No.",
    "Value Dt",
    "Withdrawal Amt.",
    "Deposit Amt.",
    "Closing Balance"
  ],
  "entries": [
    [
      "08/03/21",
      "UPI SETTLEMENT -LI9693- 08/03/21",
      "000000000000000",
      "08/03/21",
      null,
      "26880",
      "1216451.27"
    ],
    [
      "08/03/21",
      "UPI-MOHAMMED  HISHAM-MOHAMMEDHISHAM883-1@OKHDFCBANK-CNRB0000033-106712994305-UPI",
      "0000106712994305",
      "08/03/21",
      null,
      "5000",
      "1221451.27"
    ],
    [
      "08/03/21",
      "UPI-G M SOMASHEKAR-9900733343@UPI-PYTM0123456-106712417278-PAYMENT ON PENALIT",
      "0000106712417278",
      "08/03/21",
      null,
      "500",
      "1221951.27"
    ],
    [
      "08/03/21",
      "UPI-ABDUL NABI SARWAR S -8722015115@YBL-BARB0YADGIR-106719691418-PAYMENT FROM PHONE",
      "000000000000000",
      "08/03/21",
      null,
      "1",
      "1221952.27"
    ],
    [
      "08/03/21",
      "UPI-ABDUL NABI SARWAR S -8722015115@YBL-BARB0YADGIR-106761482277-COLLEGE FEES",
      "0000106761482277",
      "08/03/21",
      null,
      "21749",
      "1243701.27"
    ],
    [
      "08/03/21",
      "UPI-SOMASHEKAR G M-9900733343@UPI-IOBA0001600-106712424730-1HK19ME012 - EXAMI",
      "0000106712424730",
      "08/03/21",
      null,
      "1275",
      "1244976.27"
    ],
    [
      "08/03/21",
      "UPI-MUHAMMED NIHAL A P-7306470270@AXL-FDRL0001471-106755099610-PAYMENT FROM PHONE",
      "0000106755099610",
      "08/03/21",
      null,
      "150",
      "1245126.27"
    ],
    [
      "08/03/21",
      "UPI-TAPAN KUMAR  PAL-PALPRIYAM18@OKSBI-SBIN0014063-106713321966-UPI",
      "0000106713321966",
      "08/03/21",
      null,
      "500",
      "1245626.27"
    ],
    [
      "09/03/21",
      "UPI SETTLEMENT -LI9693- 09/03/21",
      "000000000000000",
      "09/03/21",
      null,
      "159397",
      "1405023.27"
    ],
    [
      "09/03/21",
      "28153337TERMINAL 1 CARDS SETTL. 09/03/21",
      "000000000000000",
      "09/03/21",
      null,
      "169349.07",
      "1574372.34"
    ],
    [
      "09/03/21",
      "FT - CR - 02671570003623 - BINDESHWAR RAM",
      "0000000000000048",
      "09/03/21",
      null,
      "20000",
      "1594372.34"
    ],
    [
      "09/03/21",
      "UPI-SHIKHAR-PROFPARADOX005@OKHDFCBANK-PUNB0158400-106814204491-UPI",
      "0000106814204491",
      "09/03/21",
      null,
      "15000",
      "1609372.34"
    ],
    [
      "09/03/21",
      "NEFT DR-JAKA0BNGLOR-HKBK COLLEGE OF ENGINERING-KAMMANAHALLI-N068211433788493",
      "0000000000000044",
      "09/03/21",
      "1200000",
      null,
      "409372.34"
    ],
    [
      "10/03/21",
      "IMPS-106904440899-SATYAM SINGH-HDFC-XXXXXXXX3947-NA",
      "0000106904440899",
      "10/03/21",
      null,
      "43500",
      "452872.34"
    ],
    [
      "10/03/21",
      "UPI SETTLEMENT -LI9693- 10/03/21",
      "000000000000000",
      "10/03/21",
      null,
      "15820",
      "468692.34"
    ],
    [
      "10/03/21",
      "28153337TERMINAL 1 CARDS SETTL. 10/03/21",
      "000000000000000",
      "10/03/21",
      null,
      "161108.4",
      "629800.74"
    ],
    [
      "10/03/21",
      "UPI-MOHAMMED HAMEED BASH-HAMEEDUHAMEED@YBL-KKBK0000432-106929838831-PAYMENT FROM PHONE",
      "0000106929838831",
      "10/03/21",
      null,
      "200",
      "630000.74"
    ],
    [
      "10/03/21",
      "UPI-SM ILIYAS  AHAMAD-ILIYASJASH@OKSBI-SBIN0000092-106913362617-1HK19CV023",
      "0000106913362617",
      "10/03/21",
      null,
      "50000",
      "680000.74"
    ],
    [
      "11/03/21",
      "28153337TERMINAL 1 CARDS SETTL. 11/03/21",
      "000000000000000",
      "11/03/21",
      null,
      "93235.9",
      "773236.64"
    ],
    [
      "11/03/21",
      "UPI SETTLEMENT -LI9693- 11/03/21",
      "000000000000000",
      "11/03/21",
      null,
      "18040",
      "791276.64"
    ],
    [
      "12/03/21",
      "UPI SETTLEMENT -LI9693- 12/03/21",
      "000000000000000",
      "12/03/21",
      null,
      "400",
      "791676.64"
    ],
    [
      "12/03/21",
      "UPI-AFTAB ALAM-7975819623@IBL-KARB0000939-107124937076-AZAD ANSARI1HK17CS",
      "0000107124937076",
      "12/03/21",
      null,
      "10000",
      "801676.64"
    ],
    [
      "12/03/21",
      "NEFT CR-ICIC0SF0002-NIRAJ V SHUKLA-HKBK COLLEGE OF ENGINEERING-66224763",
      "0000000066224763",
      "12/03/21",
      null,
      "135000",
      "936676.64"
    ],
    [
      "12/03/21",
      "UPI-MR MAYUKH SAHA-SAHAMAYUKH7@OKICICI-BDBL0001140-107112455353-UPI",
      "0000000066224763",
      "12/03/21",
      null,
      "1",
      "936677.64"
    ],

    [
      "12/03/21",
      "UPI-MR MAYUKH SAHA-SAHAMAYUKH7@OKICICI-BDBL0001140-107112455353-UPI",
      "0000107112470165",
      "12/03/21",
      null,
      "40000",
      "976677.64"
    ],
    [
      "12/03/21",
      "50200030772377-TPT-NADEEM CSE190883-THE WAVE CHARITABLE TRUST",
      "0000000162074308",
      "12/03/21",
      null,
      "21000",
      "997677.64"
    ],
    [
      "13/03/21",
      "UPI SETTLEMENT -LI9693- 13/03/21",
      "000000000000000",
      "13/03/21",
      null,
      "25160",
      "1022837.64"
    ],
    [
      "13/03/21",
      "28153337TERMINAL 1 CARDS SETTL. 13/03/21",
      "000000000000000",
      "13/03/21",
      null,
      "267368.38",
      "1290206.02"
    ],
    [
      "13/03/21",
      "UPI-MOHAMMED SADIQ-MOHAMMEDSADIQ29ZAYED@OKSBI-BARB0VJJCRO-107211214025-UPI",
      "0000107211214025",
      "13/03/21",
      null,
      "15000",
      "1305206.02"
    ],
    [
      "13/03/21",
      "UPI-MOHAMMED SADIQ-MOHAMMEDSADIQ29ZAYED@OKSBI-BARB0VJJCRO-107211221871-UPI",
      "0000107211221871",
      "13/03/21",
      null,
      "15000",
      "1320206.02"
    ],
    [
      "13/03/21",
      "UPI-ARFATH AHMED SHARIEF-ARFATH980@YBL-ICIC0000204-107289529454-PAYMENT FROM PHONE",
      "0000107289529454",
      "13/03/21",
      null,
      "50000",
      "1370206.02"
    ],
    [
      "14/03/21",
      "UPI SETTLEMENT -LI9693- 14/03/21",
      "000000000000000",
      "14/03/21",
      null,
      "7200",
      "1377406.02"
    ],
    [
      "14/03/21",
      "28153337TERMINAL 1 CARDS SETTL. 14/03/21",
      "000000000000000",
      "14/03/21",
      null,
      "62028",
      "1439434.02"
    ],
    [
      "15/03/21",
      "UPI SETTLEMENT -LI9693- 15/03/21",
      "000000000000000",
      "15/03/21",
      null,
      "105",
      "1439539.02"
    ],
    [
      "15/03/21",
      "UPI-MOHAMMED SAIFUDDIN M-USAIF5289@OKSBI-SBIN0021963-107410689219-UPI",
      "0000107410689219",
      "15/03/21",
      null,
      "25000",
      "1464539.02"
    ],
    [
      "15/03/21",
      "UPI-SONAM OP-SONAMOP-1@OKHDFCBANK-JAKA0BNGLOR-107414869290-ADMISSION",
      "0000107414869290",
      "15/03/21",
      null,
      "5000",
      "1469539.02"
    ],
    [
      "15/03/21",
      "UPI-VADIYALA KAVITHA-AKHILREDDYA@YBL-HDFC0000518-107459647663-PAYMENT FROM PHONE",
      "0000107459647663",
      "15/03/21",
      null,
      "45000",
      "1514539.02"
    ],
    [
      "15/03/21",
      "NEFT CR-JAKA0KAMMAN-MANSHA YASEEN-HDFC BANK LTB-NEFTSDC13442332",
      "0NEFTSDC13442332",
      "15/03/21",
      null,
      "35000",
      "1549539.02"
    ],
    [
      "16/03/21",
      "UPI SETTLEMENT -LI9693- 16/03/21",
      "000000000000000",
      "16/03/21",
      null,
      "3115",
      "1552654.02"
    ],
    [
      "16/03/21",
      "28153337TERMINAL 1 CARDS SETTL. 16/03/21",
      "000000000000000",
      "16/03/21",
      null,
      "257458.01",
      "1810112.03"
    ],
    [
      "16/03/21",
      "UPI-AFTAB ALAM-7975819623@YBL-KARB0000939-107537490000-ARMAN ANSARI CLZ F",
      "0000107537490000",
      "16/03/21",
      null,
      "20000",
      "1830112.03"
    ],
    [
      "16/03/21",
      "UPI-AFTAB ALAM-7975819623@YBL-KARB0000939-107572763670-ARMAN ANSARI HOSTE",
      "0000107572763670",
      "16/03/21",
      null,
      "10000",
      "1840112.03"
    ],
    [
      "17/03/21",
      "UPI SETTLEMENT -LI9693- 17/03/21",
      "000000000000000",
      "17/03/21",
      null,
      "32730",
      "1872842.03"
    ],
    [
      "17/03/21",
      "28153337TERMINAL 1 CARDS SETTL. 17/03/21",
      "000000000000000",
      "17/03/21",
      null,
      "144502",
      "2017344.03"
    ],
    [
      "17/03/21",
      "RTGS CHGS BRN INCL GST 020321-MIR2107022766633",
      "MIR2107022766633",
      "17/03/21",
      "17.7",
      null,
      "2017326.33"
    ],
    [
      "17/03/21",
      "UPI-SAIKUL ALAM LASKAR-SAIKULALAM136@OKSBI-SBIN0005541-107616517601-MARCH HOSTEL FEE 2",
      "0000107616517601",
      "17/03/21",
      null,
      "7000",
      "2024326.33"
    ],
    [
      "17/03/21",
      "NEFT CHGS BRN INCL GST 090321-MIR2107328422519",
      "MIR2107328422519",
      "17/03/21",
      "11.8",
      null,
      "2024314.53"
    ],
    [
      "18/03/21",
      "UPI SETTLEMENT -LI9693- 18/03/21",
      "000000000000000",
      "18/03/21",
      null,
      "355",
      "2024669.53"
    ],
    [
      "18/03/21",
      "28153337TERMINAL 1 CARDS SETTL. 18/03/21",
      "000000000000000",
      "18/03/21",
      null,
      "104622.4",
      "2129291.93"
    ],
    [
      "18/03/21",
      "BRN-CLG-CHQ ARUN RAMANATHAN",
      "182022",
      "18/03/21",
      null,
      "60000.00",
      "2129291.93"
    ],
    [
      "18/03/21",
      "BRN-CLG-CHQ SIDDARTH",
      "645352",
      "18/03/21",
      null,
      "60000.00",
      "2129291.93"
    ],
    [
      "18/03/21",
      "BRN-CLG-CHQ SHIRISH KUMAR",
      "460091",
      "18/03/21",
      null,
      "40000.00",
      "2129291.93"
    ]
  ]
}
