{
  "Basic Information": [
    {
      "category": "input",
      "type": "text",
      "name": "registerID",
      "label": "Student Registeration ID",
      "class": "input-wrap student-id",
      "readOnly": true,
      "required": false
    },
    {
      "category": "input",
      "type": "text",
      "name": "studentName",
      "label": "Student Name",
      "class": "input-wrap student-name",
      "readOnly": true,
      "required": false
    },
    {
      "category": "input",
      "type": "text",
      "name": "parentName",
      "label": "Parent Name",
      "class": "input-wrap parent-name",
      "readOnly": true,
      "required": false
    },
    {
      "category": "input",
      "type": "text",
      "name": "classBatch",
      "label": "Class/Batch",
      "class": "input-wrap classBatch",
      "readOnly": true,
      "required": false
    },
    {
      "category": "input",
      "type": "text",
      "name": "admittedOn",
      "label": "Admitted On",
      "class": "input-wrap admittedOn",
      "readOnly": true,
      "required": false
    },
    {
      "category": "input",
      "type": "text",
      "name": "refundAmt",
      "label": "Refund Amount",
      "class": "input-wrap refundAmt",
      "readOnly": true,
      "required": false
    }
  ]
}
