{
    "FetchStudentDetails": [
        {
            "category": "input",
            "type": "text",
            "name": "studentID",
            "label": "Student Registeration ID",
            "class": "input-wrap student-id",
            "readOnly": false,
            "required": true
        },
        {
            "category": "button",
            "type": "submit",
            "label": "Fetch Details",
            "class": "primary-btn fetch-details-btn",
            "apiDetails": [
                {
                    "baseUri": "portal",
                    "apiUri": "1",
                    "method": "POST"
                }
            ]
        }
    ],
    "AmountDetails": [
        {
            "category": "input",
            "type": "text",
            "name": "selectedAmount",
            "label": "Selected Amount ",
            "class": "input-wrap",
            "readOnly": true,
            "required": true
        },
        {
            "category": "input",
            "type": "number",
            "name": "refundAmount",
            "label": "Refund Amount ",
            "class": "input-wrap",
            "readOnly": false,
            "required": true
        },
        {
            "category": "button",
            "type": "submit",
            "label": "Refund",
            "class": "primary-btn submit-btn-details",
            "apiDetails": [
                {
                    "baseUri": "portal",
                    "apiUri": "1",
                    "method": "POST"
                }
            ]
        }
    ]
}